   _____              _ _ _      _____              _    _____                 _
  / ____|            | (_) |    / ____|            | |  / ____|               (_)
 | |     _ __ ___  __| |_| |_  | |     __ _ _ __ __| | | (___   ___ _ ____   ___  ___ ___
 | |    | '__/ _ \/ _` | | __| | |    / _` | '__/ _` |  \___ \ / _ \ '__\ \ / / |/ __/ _ \
 | |____| | |  __/ (_| | | |_  | |___| (_| | | | (_| |  ____) |  __/ |   \ V /| | (_|  __/
  \_____|_|  \___|\__,_|_|\__|  \_____\__,_|_|  \__,_| |_____/ \___|_|    \_/ |_|\___\___|
